{
  "name": "simp-compliance_markup",
  "version": "3.2.3",
  "author": "SIMP Team",
  "summary": "Compliance-mapping annotation for Puppet code",
  "license": "Apache-2.0",
  "source": "https://github.com/simp/pupmod-simp-compliance_markup",
  "project_page": "https://github.com/simp/pupmod-simp-compliance_markup",
  "issues_url": "https://simp-project.atlassian.net",
  "tags": [
    "simp",
    "security",
    "compliance",
    "reporting"
  ],
  "dependencies": [
    {
      "name": "puppetlabs/stdlib",
      "version_requirement": ">= 6.6.0 < 8.0.0"
    },
    {
      "name": "simp/simplib",
      "version_requirement": ">= 3.8.0 < 5.0.0"
    }
  ],
  "operatingsystem_support": [
    {
      "operatingsystem": "Amazon",
      "operatingsystemrelease": [
        "2"
      ]
    },
    {
      "operatingsystem": "CentOS",
      "operatingsystemrelease": [
        "7",
        "8"
      ]
    },
    {
      "operatingsystem": "RedHat",
      "operatingsystemrelease": [
        "7",
        "8"
      ]
    },
    {
      "operatingsystem": "OracleLinux",
      "operatingsystemrelease": [
        "7",
        "8"
      ]
    }
  ],
  "requirements": [
    {
      "name": "puppet",
      "version_requirement": ">= 6.22.1 < 8.0.0"
    }
  ]
}
